# XSI Wavefront OBJ Export v3.0
# File Created: Tue May 19 15:37:37 2015
# XSI Version: 12.0.921.0
mtllib wall.mtl

o cube
# Hierarchy (from self to top father)
g cube

#begin 8 vertices
v -0.500000 -0.500000 -0.500000
v 0.500000 -0.500000 -0.500000
v -0.500000 0.500000 -0.500000
v 0.500000 0.500000 -0.500000
v -0.500000 -0.500000 0.500000
v 0.500000 -0.500000 0.500000
v -0.500000 0.500000 0.500000
v 0.500000 0.500000 0.500000
#end 8 vertices

#begin 36 normals
vn 0.000000 0.000000 -1.000000
vn 0.000000 0.000000 -1.000000
vn 0.000000 0.000000 -1.000000
vn 0.000000 -1.000000 0.000000
vn 0.000000 -1.000000 0.000000
vn 0.000000 -1.000000 0.000000
vn -1.000000 0.000000 0.000000
vn -1.000000 0.000000 0.000000
vn -1.000000 0.000000 0.000000
vn 1.000000 0.000000 0.000000
vn 1.000000 0.000000 0.000000
vn 1.000000 0.000000 0.000000
vn 0.000000 1.000000 0.000000
vn 0.000000 1.000000 0.000000
vn 0.000000 1.000000 0.000000
vn 0.000000 0.000000 1.000000
vn 0.000000 0.000000 1.000000
vn 0.000000 0.000000 1.000000
vn 0.000000 0.000000 -1.000000
vn 0.000000 0.000000 -1.000000
vn 0.000000 0.000000 -1.000000
vn 0.000000 -1.000000 0.000000
vn 0.000000 -1.000000 0.000000
vn 0.000000 -1.000000 0.000000
vn -1.000000 0.000000 0.000000
vn -1.000000 0.000000 0.000000
vn -1.000000 0.000000 0.000000
vn 1.000000 0.000000 -0.000000
vn 1.000000 0.000000 0.000000
vn 1.000000 0.000000 0.000000
vn -0.000000 1.000000 0.000000
vn 0.000000 1.000000 0.000000
vn 0.000000 1.000000 0.000000
vn 0.000000 -0.000000 1.000000
vn 0.000000 0.000000 1.000000
vn 0.000000 0.000000 1.000000
#end 36 vertex normals

#begin texture vertices
vt 0.769908 1.020887 0.000000
vt 0.112399 -0.305167 0.000000
vt -0.556146 0.363378 0.000000
vt 0.780941 1.020887 0.000000
vt 0.101363 0.363378 0.000000
vt 0.777977 -0.310251 0.000000
vt 1.438453 0.352342 0.000000
vt 0.116206 -0.988500 0.000000
vt 0.769908 0.363378 0.000000
vt 0.772090 -0.991292 0.000000
vt 1.438453 -0.305167 0.000000
vt 0.780941 0.363378 0.000000
vt 0.101363 0.352342 0.000000
vt 0.112399 1.020887 0.000000
vt -0.556146 1.020887 0.000000
vt 0.101363 1.020887 0.000000
vt 1.438453 1.020887 0.000000
vt -0.556146 0.352342 0.000000
vt 0.112399 0.363378 0.000000
vt 0.101363 -0.305167 0.000000
vt 0.780941 0.352342 0.000000
vt 1.438453 0.363378 0.000000
vt 0.780941 -0.305167 0.000000
vt -0.556146 -0.305167 0.000000
#end 24 texture vertices

#begin 12 faces
usemtl material
f 1/2/1 4/10/2 2/6/3 
usemtl material
f 1/3/4 6/16/5 5/15/6 
usemtl material
f 1/1/7 7/19/8 3/9/9 
usemtl material
f 2/4/10 8/22/11 6/17/12 
usemtl material
f 3/7/13 8/23/14 4/11/15 
usemtl material
f 5/13/16 8/24/17 7/20/18 
usemtl material
f 3/8/19 4/10/20 1/2/21 
usemtl material
f 2/5/22 6/16/23 1/3/24 
usemtl material
f 5/14/25 7/19/26 1/1/27 
usemtl material
f 4/12/28 8/22/29 2/4/30 
usemtl material
f 7/21/31 8/23/32 3/7/33 
usemtl material
f 6/18/34 8/24/35 5/13/36 
#end 12 faces
